<?xml version="1.0" encoding="ASCII"?>
<sdkproject:SdkProject xmi:version="2.0" xmlns:xmi="http://www.omg.org/XMI" xmlns:xsi="http://www.w3.org/2001/XMLSchema-instance" xmlns:sdkproject="http://www.xilinx.com/sdkproject" name="cora_z7_axi_gpio" location="E:/MistyWest/CR02/workspace/cora_z7_axi_gpio" platform="E:/MistyWest/CR02/workspace/cora_z7_test_platform/export/cora_z7_test_platform/cora_z7_test_platform.xpfm" platformUID="xilinx:cora-z7-10::0.0(custom)" systemProject="cora_z7_axi_gpio_system" sysConfig="cora_z7_test_platform" runtime="cpp" cpu="domain_ps7_cortexa9_0" cpuInstance="ps7_cortexa9_0" os="freertos10_xilinx" mssSignature="ca7783cc5005a0dabf48942132ee140e">
  <configuration name="Debug" id="xilinx.gnu.armv7.exe.debug.888231565">
    <configBuildOptions xsi:type="sdkproject:SdkOptions"/>
    <lastBuildOptions xsi:type="sdkproject:SdkOptions"/>
  </configuration>
  <configuration name="Release" id="xilinx.gnu.armv7.exe.release.388847506" dirty="true">
    <configBuildOptions xsi:type="sdkproject:SdkOptions"/>
  </configuration>
  <template appTemplateName="freertos_hello_world"/>
</sdkproject:SdkProject>
